[
  {
    "expression": "number_of_rooms_not_sprayed == (rooms_locked + n_rooms_nobody + n_rooms_refused + n_rooms_baby + n_rooms_patient + n_rooms_funeral + n_rooms_kitchen + n_rooms_food + n_rooms_material + n_rooms_other)",
    "message": "Reasons for rooms unsprayed must = total # of rooms unsprayed.",
    "name": "rooms_unsprayed_refusal_count",
    "precondition": "",
    "type": "error"
  },
  {
    "expression": "number_of_rooms == (number_rooms_modern + number_rooms_traditional)",
    "message": "Modern + traditional rooms must = total rooms",
    "name": "number_of_rooms",
    "precondition": null,
    "type": "error"
  },
  {
    "expression": "n_people_homestead == (n_people_homestead_underage5 + n_people_homestead_overage5)",
    "message": "# of people under 5 + over 5 must = total people",
    "name": "number_of_people",
    "precondition": null,
    "type": "error"
  },
  {
    "expression": "n_people_homestead <51",
    "message": "Is this the correct # of people in the homestead? ",
    "name": "max_number_of_people",
    "precondition": "",
    "type": "warning"
  },
  {
    "expression": "number_of_rooms < 51",
    "message": "Is this the correct # of rooms in this homestead?",
    "name": "max_number_of_rooms",
    "precondition": "",
    "type": "warning"
  },
  {
    "expression": " number_sprayed <= number_of_rooms",
    "message": "# rooms sprayed must be < or = to total # of rooms",
    "name": "numer_of_rooms_sprayed_total",
    "precondition": "",
    "type": "error"
  },
  {
    "expression": "number_sprayed_modern_partial_spray <= number_rooms_modern",
    "message": "# sprayed modern rooms must be < or = to total # of modern rooms",
    "name": "number_of_rooms_sprayed_modern",
    "precondition": "",
    "type": "error"
  },
  {
    "expression": "number_sprayed_traditional_partial_spray <= number_rooms_traditional",
    "message": "# sprayed traditional rooms must be < or = to total # of traditional rooms",
    "name": "number_of_rooms_sprayed_traditional",
    "precondition": "",
    "type": "error"
  },
  {
    "expression": "(number_sprayed_ddt + number_sprayed_lambdacyhalothrin) == number_sprayed",
    "message": "# of rooms sprayed with DDT/Lamda must = total # of rooms sprayed ",
    "name": "number_of_rooms_sprayed_by_insecticide",
    "precondition": "",
    "type": "error"
  },
  {
    "expression": "(number_of_rooms_not_sprayed + number_sprayed) == number_of_rooms",
    "message": "sprayed + unsprayed rooms must = total room count",
    "name": "number_of_rooms_sprayed_unsprayed",
    "precondition": "",
    "type": "error"
  }
]