[
  {
    "name": "homesteads found",
    "numerator_expr": "1"
  },
  {
    "name": "rooms found",
    "numerator_expr": "number_sprayable_rooms + number_unsprayed"
  },
  {
    "name": "rooms found %",
    "numerator_expr": "number_sprayable_rooms + number_unsprayed",
    "denominator_field": "NumRooms"
  },
  {
    "name": "rooms sprayed",
    "numerator_expr": "number_sprayed"
  },
  {
    "name": "rooms sprayed %",
    "numerator_expr": "number_sprayed",
    "denominator_field": "NumRooms"
  },
  {
    "name": "sprayable rooms not sprayed",
    "numerator_expr": "number_unsprayed"
  },
  {
    "name": "sprayable rooms not sprayed %",
    "numerator_expr": "number_unsprayed",
    "denominator_field": "NumRooms"
  }
]
